  
       XFOIL         Version 6.99
  
 Calculated polar for: WORTMANN FX 05-H-126 AIRFOIL                    
  
 1 1 Reynolds number fixed          Mach number fixed         
  
 xtrf =   1.000 (top)        1.000 (bottom)  
 Mach =   0.000     Re =    66.793 e 6     Ncrit =   9.000
  
   alpha    CL        CD       CDp       CM     Top_Xtr  Bot_Xtr
  ------ -------- --------- --------- -------- -------- --------
  -2.000  -0.0413   0.00422   0.00060  -0.0034   0.4634   0.0107
  -1.900  -0.0297   0.00422   0.00059  -0.0035   0.4597   0.0110
  -1.800  -0.0182   0.00421   0.00058  -0.0035   0.4561   0.0113
  -1.700  -0.0066   0.00420   0.00057  -0.0036   0.4544   0.0116
  -1.600   0.0050   0.00419   0.00056  -0.0037   0.4514   0.0117
  -1.500   0.0166   0.00421   0.00056  -0.0037   0.4437   0.0119
  -1.400   0.0282   0.00421   0.00056  -0.0038   0.4412   0.0120
  -1.300   0.0398   0.00423   0.00056  -0.0039   0.4318   0.0120
  -1.200   0.0514   0.00426   0.00057  -0.0040   0.4252   0.0120
  -1.100   0.0630   0.00428   0.00057  -0.0041   0.4175   0.0121
  -0.900   0.0862   0.00433   0.00059  -0.0042   0.4006   0.0121
  -0.800   0.0978   0.00433   0.00058  -0.0043   0.3967   0.0121
  -0.700   0.1094   0.00436   0.00059  -0.0044   0.3875   0.0122
  -0.600   0.1210   0.00436   0.00059  -0.0045   0.3857   0.0122
  -0.500   0.1326   0.00439   0.00060  -0.0046   0.3774   0.0122
  -0.400   0.1442   0.00439   0.00060  -0.0047   0.3743   0.0122
  -0.300   0.1558   0.00441   0.00060  -0.0048   0.3697   0.0122
  -0.200   0.1674   0.00442   0.00060  -0.0048   0.3637   0.0122
  -0.100   0.1790   0.00443   0.00060  -0.0049   0.3608   0.0122
   0.000   0.1906   0.00445   0.00061  -0.0050   0.3559   0.0122
   0.100   0.2022   0.00445   0.00061  -0.0051   0.3522   0.0122
   0.300   0.2254   0.00447   0.00062  -0.0053   0.3450   0.0130
   0.400   0.2370   0.00447   0.00062  -0.0054   0.3410   0.0134
   0.500   0.2486   0.00448   0.00062  -0.0055   0.3394   0.0137
   0.600   0.2602   0.00449   0.00063  -0.0056   0.3350   0.0143
   0.700   0.2718   0.00451   0.00063  -0.0057   0.3292   0.0147
   0.800   0.2833   0.00454   0.00065  -0.0058   0.3225   0.0149
   0.900   0.2949   0.00455   0.00065  -0.0059   0.3172   0.0151
   1.000   0.3064   0.00461   0.00068  -0.0060   0.3053   0.0152
   1.200   0.3293   0.00474   0.00074  -0.0062   0.2797   0.0153
   1.400   0.3524   0.00484   0.00079  -0.0064   0.2596   0.0153
   1.500   0.3639   0.00488   0.00081  -0.0066   0.2517   0.0153
   1.600   0.3754   0.00490   0.00082  -0.0067   0.2481   0.0153
   1.800   0.3986   0.00490   0.00082  -0.0069   0.2470   0.0154
   1.900   0.4102   0.00491   0.00083  -0.0070   0.2456   0.0159
   2.000   0.4218   0.00493   0.00085  -0.0071   0.2430   0.0166
   2.100   0.4333   0.00494   0.00086  -0.0072   0.2398   0.0173
   2.200   0.4449   0.00495   0.00086  -0.0073   0.2367   0.0182
   2.300   0.4564   0.00497   0.00088  -0.0074   0.2336   0.0188
   2.400   0.4679   0.00501   0.00090  -0.0075   0.2255   0.0197
   2.500   0.4793   0.00508   0.00094  -0.0076   0.2142   0.0214
   2.600   0.4907   0.00511   0.00096  -0.0077   0.2089   0.0238
   2.700   0.5017   0.00514   0.00100  -0.0078   0.1981   0.0486
   2.800   0.5131   0.00518   0.00103  -0.0079   0.1900   0.0524
   2.900   0.5245   0.00521   0.00105  -0.0080   0.1848   0.0590
   3.000   0.5360   0.00524   0.00107  -0.0081   0.1796   0.0608
   3.100   0.5473   0.00530   0.00111  -0.0082   0.1693   0.0656
   3.200   0.5587   0.00534   0.00113  -0.0083   0.1653   0.0690
   3.300   0.5702   0.00537   0.00116  -0.0084   0.1596   0.0718
   3.400   0.5816   0.00537   0.00117  -0.0085   0.1583   0.0801
   3.800   0.6265   0.00544   0.00128  -0.0088   0.1435   0.1459
   3.900   0.6378   0.00547   0.00132  -0.0089   0.1371   0.1522
   4.000   0.6490   0.00550   0.00134  -0.0089   0.1337   0.1655
   4.200   0.6716   0.00556   0.00140  -0.0091   0.1246   0.1833
   4.300   0.6828   0.00562   0.00145  -0.0092   0.1180   0.1906
   4.400   0.6941   0.00564   0.00147  -0.0093   0.1144   0.1992
   4.600   0.7160   0.00573   0.00157  -0.0094   0.1008   0.2394
   4.700   0.7272   0.00577   0.00161  -0.0095   0.0947   0.2476
   4.900   0.7493   0.00582   0.00169  -0.0097   0.0889   0.2821
   5.000   0.7598   0.00580   0.00172  -0.0096   0.0845   0.3288
   5.100   0.7709   0.00583   0.00176  -0.0097   0.0822   0.3406
   5.200   0.7820   0.00588   0.00180  -0.0098   0.0789   0.3484
   5.300   0.7933   0.00591   0.00183  -0.0099   0.0755   0.3491
   5.400   0.8046   0.00595   0.00186  -0.0100   0.0737   0.3561
   5.500   0.8156   0.00599   0.00191  -0.0101   0.0708   0.3631
   5.600   0.8266   0.00603   0.00195  -0.0101   0.0650   0.3755
   5.700   0.8378   0.00605   0.00198  -0.0102   0.0646   0.3855
   5.800   0.8489   0.00608   0.00201  -0.0103   0.0634   0.3954
   5.900   0.8592   0.00612   0.00208  -0.0103   0.0572   0.4269
   6.000   0.8697   0.00610   0.00211  -0.0102   0.0559   0.4636
   6.100   0.8806   0.00611   0.00214  -0.0103   0.0555   0.4803
   6.300   0.9025   0.00617   0.00222  -0.0104   0.0535   0.5012
   6.400   0.9129   0.00619   0.00227  -0.0104   0.0516   0.5283
   6.600   0.9341   0.00621   0.00235  -0.0103   0.0482   0.5709
   6.700   0.9449   0.00624   0.00238  -0.0104   0.0465   0.5842
   6.800   0.9553   0.00625   0.00243  -0.0103   0.0459   0.6091
   6.900   0.9654   0.00630   0.00250  -0.0103   0.0429   0.6333
   7.000   0.9760   0.00634   0.00255  -0.0103   0.0389   0.6448
   7.100   0.9867   0.00636   0.00259  -0.0103   0.0386   0.6594
   7.200   0.9969   0.00646   0.00268  -0.0103   0.0329   0.6699
   7.300   1.0072   0.00647   0.00272  -0.0102   0.0328   0.6920
   7.400   1.0180   0.00650   0.00276  -0.0103   0.0323   0.7010
   7.500   1.0288   0.00652   0.00279  -0.0103   0.0325   0.7109
   7.600   1.0392   0.00662   0.00288  -0.0103   0.0295   0.7170
   7.700   1.0495   0.00666   0.00293  -0.0103   0.0272   0.7304
   7.800   1.0605   0.00671   0.00298  -0.0104   0.0270   0.7318
   7.900   1.0709   0.00678   0.00305  -0.0104   0.0252   0.7400
   8.100   1.0909   0.00705   0.00328  -0.0104   0.0147   0.7465
   8.200   1.1019   0.00708   0.00331  -0.0104   0.0159   0.7508
   8.400   1.1211   0.00738   0.00359  -0.0103   0.0063   0.7615
   8.500   1.1315   0.00746   0.00366  -0.0103   0.0053   0.7640
   8.600   1.1419   0.00753   0.00373  -0.0103   0.0050   0.7685
   8.700   1.1524   0.00759   0.00379  -0.0103   0.0050   0.7729
   8.800   1.1629   0.00766   0.00386  -0.0104   0.0044   0.7749
   8.900   1.1729   0.00772   0.00393  -0.0103   0.0041   0.7843
   9.000   1.1835   0.00779   0.00399  -0.0104   0.0040   0.7842
   9.100   1.1929   0.00782   0.00406  -0.0102   0.0039   0.8053
   9.200   1.2033   0.00791   0.00414  -0.0103   0.0036   0.8036
   9.300   1.2134   0.00798   0.00421  -0.0102   0.0035   0.8095
   9.400   1.2229   0.00800   0.00426  -0.0101   0.0038   0.8275
   9.500   1.2328   0.00807   0.00433  -0.0100   0.0037   0.8336
   9.600   1.2422   0.00815   0.00443  -0.0099   0.0031   0.8435
   9.700   1.2524   0.00822   0.00450  -0.0099   0.0032   0.8465
   9.800   1.2619   0.00827   0.00457  -0.0097   0.0032   0.8568
   9.900   1.2719   0.00836   0.00465  -0.0097   0.0029   0.8594
  10.000   1.2816   0.00843   0.00473  -0.0096   0.0028   0.8647
  10.100   1.2904   0.00848   0.00480  -0.0093   0.0028   0.8801
  10.200   1.2975   0.00850   0.00488  -0.0087   0.0028   0.9092
  10.300   1.3062   0.00855   0.00496  -0.0084   0.0028   0.9208
  10.400   1.3134   0.00859   0.00504  -0.0078   0.0028   0.9394
  10.500   1.3217   0.00858   0.00512  -0.0074   0.0027   0.9837
